…
    ## Rows: 940
    ## Columns: 3
    ## $ user_id       <chr> "1503960366", "1503960366", "1503960366", "1503960366", ~
    ## $ activity_date <date> 2016-04-12, 2016-04-13, 2016-04-14, 2016-04-15, 2016-04~
    ## $ calories_burn <dbl> 1985, 1797, 1776, 1745, 1863, 1728, 1921, 2035, 1786, 17~

## Read file and formatting

``` r
daily_calories %>% select(user_id) %>% distinct()
```

    ## # A tibble: 33 x 1
    ##    user_id   
    ##    <chr>     
    ##  1 1503960366
    ##  2 1624580081
    ##  3 1644430081
    ##  4 1844505072
    ##  5 1927972279
    ##  6 2022484408
    ##  7 2026352035
    ##  8 2320127002
    ##  9 2347167796
    ## 10 2873212765
    ## # ... with 23 more rows

``` r
daily_calories %>% select(user_id) %>% group_by(user_id) %>% count() %>% arrange(user_id)
```

    ## # A tibble: 33 x 2
    ## # Groups:   user_id [33]
    ##    user_id        n
    ##    <chr>      <int>
    ##  1 1503960366    31
    ##  2 1624580081    31
    ##  3 1644430081    30
    ##  4 1844505072    31
    ##  5 1927972279    31
    ##  6 2022484408    31
    ##  7 2026352035    31
    ##  8 2320127002    31
    ##  9 2347167796    18
    ## 10 2873212765    31
    ## # ... with 23 more rows
…
