…
``` r
minitue_intensities %>% select(user_id) %>% distinct()
```

    ## # A tibble: 33 x 1
    ##    user_id   
    ##    <chr>     
    ##  1 1503960366
    ##  2 1624580081
    ##  3 1644430081
    ##  4 1844505072
    ##  5 1927972279
    ##  6 2022484408
    ##  7 2026352035
    ##  8 2320127002
    ##  9 2347167796
    ## 10 2873212765
    ## # ... with 23 more rows
…
