…
glimpse(minitue_sleep)
```

    ## Rows: 187,978
    ## Columns: 4
    ## $ user_id         <chr> "1503960366", "1503960366", "1503960366", "1503960366"~
    ## $ activity_minute <dttm> 2016-04-12 02:47:30, 2016-04-12 02:48:30, 2016-04-12 ~
    ## $ sleep_value     <dbl> 3, 2, 1, 1, 1, 1, 1, 2, 2, 2, 3, 3, 3, 3, 3, 2, 1, 1, ~
    ## $ log_id          <chr> "11380564589", "11380564589", "11380564589", "11380564~

``` r
minitue_sleep %>% select(user_id) %>% distinct()
```

    ## # A tibble: 24 x 1
    ##    user_id   
    ##    <chr>     
    ##  1 1503960366
    ##  2 1644430081
    ##  3 1844505072
    ##  4 1927972279
    ##  5 2026352035
    ##  6 2320127002
    ##  7 2347167796
    ##  8 3977333714
    ##  9 4020332650
    ## 10 4319703577
    ## # ... with 14 more rows
…
