…
glimpse(hourly_steps)
```

    ## Rows: 22,099
    ## Columns: 3
    ## $ user_id       <chr> "1503960366", "1503960366", "1503960366", "1503960366", ~
    ## $ activity_hour <dttm> 2016-04-12 00:00:00, 2016-04-12 01:00:00, 2016-04-12 02~
    ## $ total_steps   <dbl> 373, 160, 151, 0, 0, 0, 0, 0, 250, 1864, 676, 360, 253, ~

``` r
hourly_steps %>% select(user_id) %>% distinct()
```

    ## # A tibble: 33 x 1
    ##    user_id   
    ##    <chr>     
    ##  1 1503960366
    ##  2 1624580081
    ##  3 1644430081
    ##  4 1844505072
    ##  5 1927972279
    ##  6 2022484408
    ##  7 2026352035
    ##  8 2320127002
    ##  9 2347167796
    ## 10 2873212765
    ## # ... with 23 more rows
…
