…
    ## Rows: 410
    ## Columns: 5
    ## $ user_id               <chr> "1503960366", "1503960366", "1503960366", "15039~
    ## $ activity_date         <date> 2016-04-12, 2016-04-13, 2016-04-15, 2016-04-16,~
    ## $ total_sleep_records   <dbl> 1, 2, 1, 2, 1, 1, 1, 1, 1, 1, 1, 1, 1, 1, 1, 1, ~
    ## $ total_sleep_minutes   <dbl> 327, 384, 412, 340, 700, 304, 360, 325, 361, 430~
    ## $ total_bedtime_minutes <dbl> 346, 407, 442, 367, 712, 320, 377, 364, 384, 449~

``` r
sleep_days %>% select(user_id) %>% distinct()
```

    ## # A tibble: 24 x 1
    ##    user_id   
    ##    <chr>     
    ##  1 1503960366
    ##  2 1644430081
    ##  3 1844505072
    ##  4 1927972279
    ##  5 2026352035
    ##  6 2320127002
    ##  7 2347167796
    ##  8 3977333714
    ##  9 4020332650
    ## 10 4319703577
    ## # ... with 14 more rows
…
