…
glimpse(daily_steps)
```

    ## Rows: 940
    ## Columns: 3
    ## $ user_id       <chr> "1503960366", "1503960366", "1503960366", "1503960366", ~
    ## $ activity_date <date> 2016-04-12, 2016-04-13, 2016-04-14, 2016-04-15, 2016-04~
    ## $ total_steps   <int> 13162, 10735, 10460, 9762, 12669, 9705, 13019, 15506, 10~

``` r
daily_steps %>% select(user_id) %>% distinct()
```

    ## # A tibble: 33 x 1
    ##    user_id   
    ##    <chr>     
    ##  1 1503960366
    ##  2 1624580081
    ##  3 1644430081
    ##  4 1844505072
    ##  5 1927972279
    ##  6 2022484408
    ##  7 2026352035
    ##  8 2320127002
    ##  9 2347167796
    ## 10 2873212765
    ## # ... with 23 more rows
…
