…
``` r
weight_log_info %>% filter(is.na(weight_pounds))
```

    ## # A tibble: 0 x 8
    ## # ... with 8 variables: user_id <chr>, activity_date_time <dttm>,
    ## #   weight_kg <dbl>, weight_pounds <dbl>, fat_measure <dbl>, bmi_measure <dbl>,
    ## #   is_manual_report <lgl>, log_id <dbl>

``` r
weight_log_info %>% filter(is.na(fat_measure))
```

    ## # A tibble: 65 x 8
    ##    user_id    activity_date_time  weight_kg weight_pounds fat_measure bmi_measure
    ##    <chr>      <dttm>                  <dbl>         <dbl>       <dbl>       <dbl>
    ##  1 1503960366 2016-05-03 23:59:59      52.6          116.          NA        22.6
    ##  2 1927972279 2016-04-13 01:08:52     134.           294.          NA        47.5
    ##  3 2873212765 2016-04-21 23:59:59      56.7          125.          NA        21.5
    ##  4 2873212765 2016-05-12 23:59:59      57.3          126.          NA        21.7
    ##  5 4319703577 2016-05-04 23:59:59      72.3          159.          NA        27.4
    ##  6 4558609924 2016-04-18 23:59:59      69.7          154.          NA        27.2
    ##  7 4558609924 2016-04-25 23:59:59      70.3          155.          NA        27.5
    ##  8 4558609924 2016-05-01 23:59:59      69.9          154.          NA        27.3
    ##  9 4558609924 2016-05-02 23:59:59      69.2          153.          NA        27.0
    ## 10 4558609924 2016-05-09 23:59:59      69.1          152.          NA        27  
    ## # ... with 55 more rows, and 2 more variables: is_manual_report <lgl>,
    ## #   log_id <dbl>
…
