…
glimpse(hourly_intensities)
```

    ## Rows: 22,099
    ## Columns: 4
    ## $ user_id           <chr> "1503960366", "1503960366", "1503960366", "150396036~
    ## $ activity_hour     <dttm> 2016-04-12 00:00:00, 2016-04-12 01:00:00, 2016-04-1~
    ## $ total_intensity   <dbl> 20, 8, 7, 0, 0, 0, 0, 0, 13, 30, 29, 12, 11, 6, 36, ~
    ## $ average_intensity <dbl> 0.333333, 0.133333, 0.116667, 0.000000, 0.000000, 0.~

``` r
hourly_intensities %>% select(user_id) %>% distinct()
```

    ## # A tibble: 33 x 1
    ##    user_id   
    ##    <chr>     
    ##  1 1503960366
    ##  2 1624580081
    ##  3 1644430081
    ##  4 1844505072
    ##  5 1927972279
    ##  6 2022484408
    ##  7 2026352035
    ##  8 2320127002
    ##  9 2347167796
    ## 10 2873212765
    ## # ... with 23 more rows
…
