…
glimpse(hourly_calories)
```

    ## Rows: 22,099
    ## Columns: 3
    ## $ user_id       <chr> "1503960366", "1503960366", "1503960366", "1503960366", ~
    ## $ activity_hour <dttm> 2016-04-12 00:00:00, 2016-04-12 01:00:00, 2016-04-12 02~
    ## $ calories_burn <dbl> 81, 61, 59, 47, 48, 48, 48, 47, 68, 141, 99, 76, 73, 66,~

``` r
hourly_calories %>% select(user_id) %>% distinct()
```

    ## # A tibble: 33 x 1
    ##    user_id   
    ##    <chr>     
    ##  1 1503960366
    ##  2 1624580081
    ##  3 1644430081
    ##  4 1844505072
    ##  5 1927972279
    ##  6 2022484408
    ##  7 2026352035
    ##  8 2320127002
    ##  9 2347167796
    ## 10 2873212765
    ## # ... with 23 more rows
…
