…
glimpse(minitue_met_rates)
```

    ## Rows: 1,325,580
    ## Columns: 3
    ## $ user_id         <chr> "1503960366", "1503960366", "1503960366", "1503960366"~
    ## $ activity_minute <dttm> 2016-04-12 00:00:00, 2016-04-12 00:01:00, 2016-04-12 ~
    ## $ mets            <dbl> 10, 10, 10, 10, 10, 12, 12, 12, 12, 12, 12, 12, 10, 10~

``` r
minitue_met_rates %>% select(user_id) %>% distinct()
```

    ## # A tibble: 33 x 1
    ##    user_id   
    ##    <chr>     
    ##  1 1503960366
    ##  2 1624580081
    ##  3 1644430081
    ##  4 1844505072
    ##  5 1927972279
    ##  6 2022484408
    ##  7 2026352035
    ##  8 2320127002
    ##  9 2347167796
    ## 10 2873212765
    ## # ... with 23 more rows
…
